{
  "id": "almazurov/gptfimodelprod",
  "title": "gptfimodelprod",
  "code_file": "runprodenv.py",
  "language": "python",
  "kernel_type": "script",
  "is_private": "true",
  "enable_gpu": "true",
  "enable_internet": "true",
  "dataset_sources": [],
  "competition_sources": [],
  "kernel_sources": []
}